…
> "**Tibbles** are a modern take on data frames. They keep the features that have stood the test of time, and drop the features that used to be convenient but are now frustrating (i.e. converting character vectors to factors)." **Source:** https://cran.r-project.org/web/packages/tibble/vignettes/tibble.html

## put all our variable we made into a tibble
> * every variable we made above is seperated by a comma -- these will become columns in our dataset


```r
example_data <- tibble(subj_num, condition, dep_var, confound, gender, age)

# print example_data by just excecuting/running the name of the object
example_data
```

```
## # A tibble: 100 x 6
##    subj_num condition  dep_var   confound gender   age
##       <dbl>    <fctr>    <dbl>      <dbl> <fctr> <dbl>
##  1        1   control 1.674098 -0.4470536  Woman    20
##  2        2   control 4.115590  3.4200530    Man    22
##  3        3   control 3.587931  0.1302771  Woman    22
##  4        4   control 3.693508  3.6761140    Man    25
##  5        5   control 2.937467  1.8651247  Woman    24
##  6        6   control 1.498305  1.5519454    Man    18
##  7        7   control 4.449407  2.8325326  Woman    25
##  8        8   control 2.584887  0.8719998    Man    25
##  9        9   control 2.885519  2.1528865  Woman    22
## 10       10   control 2.858488  0.5769749    Man    22
## # ... with 90 more rows
```
…
```r
example_data <- example_data %>%
  mutate(dep_var_z = dep_var %>% scale() %>% parse_number(),
         confound_z = confound %>% scale() %>% parse_number())

# print example_data by just excecuting/running the name of the object
example_data
```

```
## # A tibble: 100 x 8
##    subj_num condition  dep_var   confound gender   age   dep_var_z
##       <dbl>    <fctr>    <dbl>      <dbl> <fctr> <dbl>       <dbl>
##  1        1   control 1.674098 -0.4470536  Woman    20 -1.19266170
##  2        2   control 4.115590  3.4200530    Man    22  0.07626853
##  3        3   control 3.587931  0.1302771  Woman    22 -0.19797503
##  4        4   control 3.693508  3.6761140    Man    25 -0.14310259
##  5        5   control 2.937467  1.8651247  Woman    24 -0.53604416
##  6        6   control 1.498305  1.5519454    Man    18 -1.28402787
##  7        7   control 4.449407  2.8325326  Woman    25  0.24976517
##  8        8   control 2.584887  0.8719998    Man    25 -0.71929240
##  9        9   control 2.885519  2.1528865  Woman    22 -0.56304340
## 10       10   control 2.858488  0.5769749    Man    22 -0.57709240
## # ... with 90 more rows, and 1 more variables: confound_z <dbl>
```

## select specific columns
> * `select()` selects your tibble's variables by name and in the exact order you specify.


```r
example_data %>% 
  select(subj_num, condition, dep_var)
```

```
## # A tibble: 100 x 3
##    subj_num condition  dep_var
##       <dbl>    <fctr>    <dbl>
##  1        1   control 1.674098
##  2        2   control 4.115590
##  3        3   control 3.587931
##  4        4   control 3.693508
##  5        5   control 2.937467
##  6        6   control 1.498305
##  7        7   control 4.449407
##  8        8   control 2.584887
##  9        9   control 2.885519
## 10       10   control 2.858488
## # ... with 90 more rows
```

## filter specific rows
> * `filter()` returns rows that all meet some condition you give it.
> * Note, `==` means "exactly equal to". See ?Comparison.


```r
example_data %>% 
  filter(condition == "control")
```

```
## # A tibble: 50 x 8
##    subj_num condition  dep_var   confound gender   age   dep_var_z
##       <dbl>    <fctr>    <dbl>      <dbl> <fctr> <dbl>       <dbl>
##  1        1   control 1.674098 -0.4470536  Woman    20 -1.19266170
##  2        2   control 4.115590  3.4200530    Man    22  0.07626853
##  3        3   control 3.587931  0.1302771  Woman    22 -0.19797503
##  4        4   control 3.693508  3.6761140    Man    25 -0.14310259
##  5        5   control 2.937467  1.8651247  Woman    24 -0.53604416
##  6        6   control 1.498305  1.5519454    Man    18 -1.28402787
##  7        7   control 4.449407  2.8325326  Woman    25  0.24976517
##  8        8   control 2.584887  0.8719998    Man    25 -0.71929240
##  9        9   control 2.885519  2.1528865  Woman    22 -0.56304340
## 10       10   control 2.858488  0.5769749    Man    22 -0.57709240
## # ... with 40 more rows, and 1 more variables: confound_z <dbl>
```
…
## SPSS


```r
# path to where file lives on your computer
coffee_filepath <- "coffee.sav"

coffee_data <- coffee_filepath %>% read_sav()

# print coffee_data by just excecuting/running the name of the object
coffee_data
```

```
## # A tibble: 138 x 3
##    image brand  freq
##    <dbl> <dbl> <dbl>
##  1     1     1    82
##  2     2     1    96
##  3     3     1    72
##  4     4     1   101
##  5     5     1    66
##  6     6     1     6
##  7     7     1    47
##  8     8     1     1
##  9     9     1    16
## 10    10     1    60
## # ... with 128 more rows
```
…
