learn R for psychology research: a crash course
…
data.frame() and tibble()

The concept of a data frame comes from the world of statistical software used in empirical research; it generally refers totabular" data: a data structure representing cases (rows), each of which consists of a number of observations or measurements (columns). Alternatively, each row may be treated as a single observation of multiple variables. In any case, each row and each column has the same data type, but the row (record) datatype may be heterogenous (a tuple of different types), while the column datatype must be homogenous. Data frames usually contain some metadata in addition to data; for example, column and row names." Source: https://github.com/mobileink/data.frame/wiki/What-is-a-Data-Frame%3F

Tibbles are a modern take on data frames. They keep the features that have stood the test of time, and drop the features that used to be convenient but are now frustrating (i.e.converting character vectors to factors). Source: https://cran.r-project.org/web/packages/tibble/vignettes/tibble.html

put all our variable we made into a tibble

example_data <- tibble(subj_num, condition, dep_var, confound, gender, age)

# print example_data by just excecuting/running the name of the object
example_data

## # A tibble: 100 x 6
##    subj_num condition dep_var confound gender   age
##       <dbl>    <fctr>   <dbl>    <dbl> <fctr> <dbl>
##  1        1   control       4        7  Woman    20
##  2        2   control       1        2    Man    23
##  3        3   control       2        5  Woman    20
##  4        4   control       1        6    Man    21
##  5        5   control       1        4  Woman    19
##  6        6   control       5        4    Man    19
##  7        7   control       4        9  Woman    19
##  8        8   control       1        4    Man    18
##  9        9   control       7       10  Woman    20
## 10       10   control       4        6    Man    18
## # ... with 90 more rows

data wrangling examples

create new variables in data.frame or tibble

mutate() adds new variables to your tibble.

example_data <- example_data %>%
  mutate(dep_var_z = dep_var %>% scale() %>% parse_number(),
         confound_z = confound %>% scale() %>% parse_number())

# print below
example_data

## # A tibble: 100 x 8
##    subj_num condition dep_var confound gender   age  dep_var_z confound_z
##       <dbl>    <fctr>   <dbl>    <dbl> <fctr> <dbl>      <dbl>      <dbl>
##  1        1   control       4        7  Woman    20 -0.1106549  0.5937083
##  2        2   control       1        2    Man    23 -1.5539800 -1.7254648
##  3        3   control       2        5  Woman    20 -1.0728716 -0.3339609
##  4        4   control       1        6    Man    21 -1.5539800  0.1298737
##  5        5   control       1        4  Woman    19 -1.5539800 -0.7977956
##  6        6   control       5        4    Man    19  0.3704534 -0.7977956
##  7        7   control       4        9  Woman    19 -0.1106549  1.5213776
##  8        8   control       1        4    Man    18 -1.5539800 -0.7977956
##  9        9   control       7       10  Woman    20  1.3326701  1.9852122
## 10       10   control       4        6    Man    18 -0.1106549  0.1298737
## # ... with 90 more rows

select specific columns

select() selects your tibbles variables by name.

example_data %>% 
  select(subj_num, condition, dep_var)

## # A tibble: 100 x 3
##    subj_num condition dep_var
##       <dbl>    <fctr>   <dbl>
##  1        1   control       4
##  2        2   control       1
##  3        3   control       2
##  4        4   control       1
##  5        5   control       1
##  6        6   control       5
##  7        7   control       4
##  8        8   control       1
##  9        9   control       7
## 10       10   control       4
## # ... with 90 more rows

filter specific rows

filter() returns rows that all meet some condition you give it.

Note, == means exactly equal to. See ?Comparison.

example_data %>% 
  filter(condition == "control")

## # A tibble: 50 x 8
##    subj_num condition dep_var confound gender   age  dep_var_z confound_z
##       <dbl>    <fctr>   <dbl>    <dbl> <fctr> <dbl>      <dbl>      <dbl>
##  1        1   control       4        7  Woman    20 -0.1106549  0.5937083
##  2        2   control       1        2    Man    23 -1.5539800 -1.7254648
##  3        3   control       2        5  Woman    20 -1.0728716 -0.3339609
##  4        4   control       1        6    Man    21 -1.5539800  0.1298737
##  5        5   control       1        4  Woman    19 -1.5539800 -0.7977956
##  6        6   control       5        4    Man    19  0.3704534 -0.7977956
##  7        7   control       4        9  Woman    19 -0.1106549  1.5213776
##  8        8   control       1        4    Man    18 -1.5539800 -0.7977956
##  9        9   control       7       10  Woman    20  1.3326701  1.9852122
## 10       10   control       4        6    Man    18 -0.1106549  0.1298737
## # ... with 40 more rows
…
